<svg id="mouse-trail" xmlns="http://www.w3.org/2000/svg" width="493.771" height="299.771" viewBox="0 0 493.771 299.771">
  <g id="Group_9" data-name="Group 9">
    <g id="Rectangle" fill="none" stroke="#fff" stroke-miterlimit="10" stroke-width="3">
      <rect width="24" height="42" rx="12" stroke="none"/>
      <rect x="1.5" y="1.5" width="21" height="39" rx="10.5" fill="none"/>
    </g>
    <rect id="Rectangle-2" data-name="Rectangle" width="4" height="12" rx="2" transform="translate(10 12)" fill="#fff"/>
  </g>
  <path id="Path_3" data-name="Path 3" stroke="#fff" d="M-479.94,0S-483.662,196.661-257.3,142.8,0,240,0,240" fill="none" transform="translate(492 58)" stroke-linecap="round" stroke-linejoin="round" stroke-miterlimit="10" stroke-width="3" stroke-dasharray="0 12"/>
</svg>
