{
    "key": "group_6071464f75495",
    "title": "Flexible Content",
    "fields": [
        {
            "key": "field_60714807d212d",
            "label": "Flexible Content",
            "name": "flexible_content",
            "type": "flexible_content",
            "instructions": "",
            "required": 0,
            "conditional_logic": 0,
            "wrapper": {
                "width": "",
                "class": "",
                "id": ""
            },
            "layouts": {
                "layout_6071485c59dbd": {
                    "key": "layout_6071485c59dbd",
                    "name": "sub_hero",
                    "label": "Sub-Hero",
                    "display": "block",
                    "sub_fields": [
                        {
                            "key": "field_60714882d212e",
                            "label": "Image",
                            "name": "image",
                            "type": "image",
                            "instructions": "",
                            "required": 0,
                            "conditional_logic": 0,
                            "wrapper": {
                                "width": "",
                                "class": "",
                                "id": ""
                            },
                            "return_format": "array",
                            "preview_size": "medium",
                            "library": "all",
                            "min_width": "",
                            "min_height": "",
                            "min_size": "",
                            "max_width": "",
                            "max_height": "",
                            "max_size": "",
                            "mime_types": ""
                        },
                        {
                            "key": "field_60714890d212f",
                            "label": "Title",
                            "name": "title",
                            "type": "text",
                            "instructions": "",
                            "required": 0,
                            "conditional_logic": 0,
                            "wrapper": {
                                "width": "",
                                "class": "",
                                "id": ""
                            },
                            "default_value": "",
                            "placeholder": "",
                            "prepend": "",
                            "append": "",
                            "maxlength": ""
                        },
                        {
                            "key": "field_60714896d2130",
                            "label": "Text",
                            "name": "text",
                            "type": "textarea",
                            "instructions": "",
                            "required": 0,
                            "conditional_logic": 0,
                            "wrapper": {
                                "width": "",
                                "class": "",
                                "id": ""
                            },
                            "default_value": "",
                            "placeholder": "",
                            "maxlength": "",
                            "rows": 3,
                            "new_lines": ""
                        },
                        {
                            "key": "field_607148b7d2131",
                            "label": "Button Type",
                            "name": "button_type",
                            "type": "select",
                            "instructions": "",
                            "required": 0,
                            "conditional_logic": 0,
                            "wrapper": {
                                "width": "",
                                "class": "",
                                "id": ""
                            },
                            "choices": {
                                "None": "None",
                                "Link": "Link",
                                "Video": "Video"
                            },
                            "default_value": "None",
                            "allow_null": 0,
                            "multiple": 0,
                            "ui": 0,
                            "return_format": "value",
                            "ajax": 0,
                            "placeholder": ""
                        },
                        {
                            "key": "field_6071490cd2132",
                            "label": "Button Link",
                            "name": "button_link",
                            "type": "link",
                            "instructions": "",
                            "required": 1,
                            "conditional_logic": [
                                [
                                    {
                                        "field": "field_607148b7d2131",
                                        "operator": "==",
                                        "value": "Link"
                                    }
                                ]
                            ],
                            "wrapper": {
                                "width": "",
                                "class": "",
                                "id": ""
                            },
                            "return_format": "array"
                        },
                        {
                            "key": "field_6071493bd2133",
                            "label": "Button YouTube URL",
                            "name": "button_youtube_url",
                            "type": "link",
                            "instructions": "",
                            "required": 1,
                            "conditional_logic": [
                                [
                                    {
                                        "field": "field_607148b7d2131",
                                        "operator": "==",
                                        "value": "Video"
                                    }
                                ]
                            ],
                            "wrapper": {
                                "width": "",
                                "class": "",
                                "id": ""
                            },
                            "return_format": "array"
                        },
                        {
                            "key": "field_6077b866e555c",
                            "label": "Show “Provided by WPI” banner",
                            "name": "provided_by_wpi",
                            "type": "true_false",
                            "instructions": "",
                            "required": 0,
                            "conditional_logic": 0,
                            "wrapper": {
                                "width": "",
                                "class": "",
                                "id": ""
                            },
                            "message": "",
                            "default_value": 0,
                            "ui": 1,
                            "ui_on_text": "Show",
                            "ui_off_text": "Hide"
                        }
                    ],
                    "min": "",
                    "max": ""
                },
                "layout_60714a77bb37f": {
                    "key": "layout_60714a77bb37f",
                    "name": "wysiwyg_editor",
                    "label": "WYSIWYG Editor",
                    "display": "block",
                    "sub_fields": [
                        {
                            "key": "field_60714a9bbb380",
                            "label": "Columns",
                            "name": "columns",
                            "type": "select",
                            "instructions": "",
                            "required": 0,
                            "conditional_logic": 0,
                            "wrapper": {
                                "width": "",
                                "class": "",
                                "id": ""
                            },
                            "choices": {
                                "1": "One",
                                "2": "Two",
                                "3": "Three"
                            },
                            "default_value": 1,
                            "allow_null": 0,
                            "multiple": 0,
                            "ui": 0,
                            "return_format": "value",
                            "ajax": 0,
                            "placeholder": ""
                        },
                        {
                            "key": "field_60714ad5bb381",
                            "label": "Heading",
                            "name": "heading",
                            "type": "text",
                            "instructions": "",
                            "required": 0,
                            "conditional_logic": 0,
                            "wrapper": {
                                "width": "",
                                "class": "",
                                "id": ""
                            },
                            "default_value": "",
                            "placeholder": "",
                            "prepend": "",
                            "append": "",
                            "maxlength": ""
                        },
                        {
                            "key": "field_60714ae1bb382",
                            "label": "Column 1",
                            "name": "column_1",
                            "type": "wysiwyg",
                            "instructions": "",
                            "required": 1,
                            "conditional_logic": [
                                [
                                    {
                                        "field": "field_60714a9bbb380",
                                        "operator": "==",
                                        "value": "1"
                                    }
                                ],
                                [
                                    {
                                        "field": "field_60714a9bbb380",
                                        "operator": "==",
                                        "value": "2"
                                    }
                                ],
                                [
                                    {
                                        "field": "field_60714a9bbb380",
                                        "operator": "==",
                                        "value": "3"
                                    }
                                ]
                            ],
                            "wrapper": {
                                "width": "",
                                "class": "",
                                "id": ""
                            },
                            "default_value": "",
                            "tabs": "all",
                            "toolbar": "full",
                            "media_upload": 0,
                            "delay": 0
                        },
                        {
                            "key": "field_60714b1ebb385",
                            "label": "Column 2",
                            "name": "column_2",
                            "type": "wysiwyg",
                            "instructions": "",
                            "required": 1,
                            "conditional_logic": [
                                [
                                    {
                                        "field": "field_60714a9bbb380",
                                        "operator": "==",
                                        "value": "2"
                                    }
                                ],
                                [
                                    {
                                        "field": "field_60714a9bbb380",
                                        "operator": "==",
                                        "value": "3"
                                    }
                                ]
                            ],
                            "wrapper": {
                                "width": "",
                                "class": "",
                                "id": ""
                            },
                            "default_value": "",
                            "tabs": "all",
                            "toolbar": "full",
                            "media_upload": 0,
                            "delay": 0
                        },
                        {
                            "key": "field_60714b2fbb386",
                            "label": "Column 3",
                            "name": "column_3",
                            "type": "wysiwyg",
                            "instructions": "",
                            "required": 1,
                            "conditional_logic": [
                                [
                                    {
                                        "field": "field_60714a9bbb380",
                                        "operator": "==",
                                        "value": "3"
                                    }
                                ]
                            ],
                            "wrapper": {
                                "width": "",
                                "class": "",
                                "id": ""
                            },
                            "default_value": "",
                            "tabs": "all",
                            "toolbar": "full",
                            "media_upload": 0,
                            "delay": 0
                        },
                        {
                            "key": "field_6077b7a1c7552",
                            "label": "Heading Rule Color",
                            "name": "heading_rule_color",
                            "type": "select",
                            "instructions": "",
                            "required": 0,
                            "conditional_logic": 0,
                            "wrapper": {
                                "width": "",
                                "class": "",
                                "id": ""
                            },
                            "choices": {
                                "none": "None",
                                "white": "White",
                                "wpi-red": "WPI Red",
                                "blue": "Blue",
                                "black": "Black",
                                "navy-blue": "Navy Blue",
                                "purple": "Purple",
                                "green": "Green",
                                "gray": "Gray",
                                "orange-red": "Orange Red",
                                "yellow": "Yellow"
                            },
                            "default_value": "none",
                            "allow_null": 0,
                            "multiple": 0,
                            "ui": 0,
                            "return_format": "value",
                            "ajax": 0,
                            "placeholder": ""
                        },
                        {
                            "key": "field_6077b7dec7553",
                            "label": "Background Color",
                            "name": "background_color",
                            "type": "select",
                            "instructions": "",
                            "required": 0,
                            "conditional_logic": 0,
                            "wrapper": {
                                "width": "",
                                "class": "",
                                "id": ""
                            },
                            "choices": {
                                "white": "White",
                                "gray": "Gray"
                            },
                            "default_value": "white",
                            "allow_null": 0,
                            "multiple": 0,
                            "ui": 0,
                            "return_format": "value",
                            "ajax": 0,
                            "placeholder": ""
                        },
                        {
                            "key": "field_6077b80bc7554",
                            "label": "Background Image",
                            "name": "background_image",
                            "type": "image",
                            "instructions": "",
                            "required": 0,
                            "conditional_logic": 0,
                            "wrapper": {
                                "width": "",
                                "class": "",
                                "id": ""
                            },
                            "return_format": "array",
                            "preview_size": "medium",
                            "library": "all",
                            "min_width": "",
                            "min_height": "",
                            "min_size": "",
                            "max_width": "",
                            "max_height": "",
                            "max_size": "",
                            "mime_types": ""
                        },
                        {
                            "key": "field_6077b81dc7555",
                            "label": "Background Image Alignment",
                            "name": "background_image_alignment",
                            "type": "select",
                            "instructions": "",
                            "required": 0,
                            "conditional_logic": [
                                [
                                    {
                                        "field": "field_6077b80bc7554",
                                        "operator": "!=empty"
                                    }
                                ]
                            ],
                            "wrapper": {
                                "width": "",
                                "class": "",
                                "id": ""
                            },
                            "choices": {
                                "left": "Left",
                                "right": "Right"
                            },
                            "default_value": "left",
                            "allow_null": 0,
                            "multiple": 0,
                            "ui": 0,
                            "return_format": "value",
                            "ajax": 0,
                            "placeholder": ""
                        }
                    ],
                    "min": "",
                    "max": ""
                },
                "layout_60714b65150d3": {
                    "key": "layout_60714b65150d3",
                    "name": "carousel",
                    "label": "Carousel",
                    "display": "block",
                    "sub_fields": [
                        {
                            "key": "field_60714b6c150d4",
                            "label": "Slides",
                            "name": "slides",
                            "type": "repeater",
                            "instructions": "",
                            "required": 0,
                            "conditional_logic": 0,
                            "wrapper": {
                                "width": "",
                                "class": "",
                                "id": ""
                            },
                            "collapsed": "",
                            "min": 0,
                            "max": 0,
                            "layout": "row",
                            "button_label": "Add Slide",
                            "sub_fields": [
                                {
                                    "key": "field_60714b93150d5",
                                    "label": "Heading",
                                    "name": "heading",
                                    "type": "text",
                                    "instructions": "",
                                    "required": 1,
                                    "conditional_logic": 0,
                                    "wrapper": {
                                        "width": "",
                                        "class": "",
                                        "id": ""
                                    },
                                    "default_value": "",
                                    "placeholder": "",
                                    "prepend": "",
                                    "append": "",
                                    "maxlength": ""
                                },
                                {
                                    "key": "field_60714b9b150d6",
                                    "label": "Text",
                                    "name": "text",
                                    "type": "textarea",
                                    "instructions": "",
                                    "required": 1,
                                    "conditional_logic": 0,
                                    "wrapper": {
                                        "width": "",
                                        "class": "",
                                        "id": ""
                                    },
                                    "default_value": "",
                                    "placeholder": "",
                                    "maxlength": "",
                                    "rows": 4,
                                    "new_lines": ""
                                },
                                {
                                    "key": "field_60714bb7150d7",
                                    "label": "Links",
                                    "name": "links",
                                    "type": "repeater",
                                    "instructions": "",
                                    "required": 0,
                                    "conditional_logic": 0,
                                    "wrapper": {
                                        "width": "",
                                        "class": "",
                                        "id": ""
                                    },
                                    "collapsed": "",
                                    "min": 0,
                                    "max": 0,
                                    "layout": "table",
                                    "button_label": "Add Link",
                                    "sub_fields": [
                                        {
                                            "key": "field_60714be1150d8",
                                            "label": "Link",
                                            "name": "link",
                                            "type": "link",
                                            "instructions": "",
                                            "required": 1,
                                            "conditional_logic": 0,
                                            "wrapper": {
                                                "width": "",
                                                "class": "",
                                                "id": ""
                                            },
                                            "return_format": "array"
                                        }
                                    ]
                                },
                                {
                                    "key": "field_60714c4e150d9",
                                    "label": "Image",
                                    "name": "image",
                                    "type": "image",
                                    "instructions": "Minimum image size is 1440x810",
                                    "required": 1,
                                    "conditional_logic": 0,
                                    "wrapper": {
                                        "width": "",
                                        "class": "",
                                        "id": ""
                                    },
                                    "return_format": "array",
                                    "preview_size": "medium",
                                    "library": "all",
                                    "min_width": 1440,
                                    "min_height": 810,
                                    "min_size": "",
                                    "max_width": "",
                                    "max_height": "",
                                    "max_size": "",
                                    "mime_types": ""
                                },
                                {
                                    "key": "field_60714c66150da",
                                    "label": "YouTube URL",
                                    "name": "youtube_url",
                                    "type": "text",
                                    "instructions": "Optional. Provide a YouTube URL to link to the video in a lightbox",
                                    "required": 0,
                                    "conditional_logic": 0,
                                    "wrapper": {
                                        "width": "",
                                        "class": "",
                                        "id": ""
                                    },
                                    "default_value": "",
                                    "placeholder": "",
                                    "prepend": "",
                                    "append": "",
                                    "maxlength": ""
                                }
                            ]
                        },
                        {
                            "key": "field_60714c87150db",
                            "label": "Background Color",
                            "name": "background_color",
                            "type": "select",
                            "instructions": "",
                            "required": 0,
                            "conditional_logic": 0,
                            "wrapper": {
                                "width": "",
                                "class": "",
                                "id": ""
                            },
                            "choices": {
                                "white": "White",
                                "wpi-red": "WPI Red",
                                "blue": "Blue",
                                "black": "Black",
                                "navy-blue": "Navy Blue",
                                "purple": "Purple",
                                "green": "Green",
                                "gray": "Gray",
                                "orange-red": "Orange Red",
                                "yellow": "Yellow"
                            },
                            "default_value": "blue",
                            "allow_null": 0,
                            "multiple": 0,
                            "ui": 0,
                            "return_format": "value",
                            "ajax": 0,
                            "placeholder": ""
                        },
                        {
                            "key": "field_6077b98448d88",
                            "label": "Background Style",
                            "name": "background_style",
                            "type": "select",
                            "instructions": "",
                            "required": 0,
                            "conditional_logic": 0,
                            "wrapper": {
                                "width": "",
                                "class": "",
                                "id": ""
                            },
                            "choices": {
                                "split": "Split",
                                "single-color": "Single Color"
                            },
                            "default_value": "split",
                            "allow_null": 0,
                            "multiple": 0,
                            "ui": 0,
                            "return_format": "value",
                            "ajax": 0,
                            "placeholder": ""
                        },
                        {
                            "key": "field_6077d16d07971",
                            "label": "Foreground Color",
                            "name": "foreground_color",
                            "type": "select",
                            "instructions": "",
                            "required": 0,
                            "conditional_logic": 0,
                            "wrapper": {
                                "width": "",
                                "class": "",
                                "id": ""
                            },
                            "choices": {
                                "white": "Light",
                                "black": "Dark"
                            },
                            "default_value": "black",
                            "allow_null": 0,
                            "multiple": 0,
                            "ui": 0,
                            "return_format": "value",
                            "ajax": 0,
                            "placeholder": ""
                        }
                    ],
                    "min": "",
                    "max": ""
                },
                "layout_60714dd997dd2": {
                    "key": "layout_60714dd997dd2",
                    "name": "button_grid",
                    "label": "Button Grid",
                    "display": "block",
                    "sub_fields": [
                        {
                            "key": "field_60714df897dd3",
                            "label": "Background Color",
                            "name": "background_color",
                            "type": "select",
                            "instructions": "",
                            "required": 0,
                            "conditional_logic": 0,
                            "wrapper": {
                                "width": "",
                                "class": "",
                                "id": ""
                            },
                            "choices": {
                                "white": "White",
                                "wpi-red": "WPI Red",
                                "blue": "Blue",
                                "black": "Black",
                                "navy-blue": "Navy Blue",
                                "purple": "Purple",
                                "green": "Green",
                                "gray": "Gray",
                                "orange-red": "Orange Red",
                                "yellow": "Yellow"
                            },
                            "default_value": "black",
                            "allow_null": 0,
                            "multiple": 0,
                            "ui": 0,
                            "return_format": "value",
                            "ajax": 0,
                            "placeholder": ""
                        },
                        {
                            "key": "field_60714e1e97dd4",
                            "label": "Buttons",
                            "name": "buttons",
                            "type": "repeater",
                            "instructions": "",
                            "required": 0,
                            "conditional_logic": 0,
                            "wrapper": {
                                "width": "",
                                "class": "",
                                "id": ""
                            },
                            "collapsed": "",
                            "min": 0,
                            "max": 0,
                            "layout": "table",
                            "button_label": "Add Button",
                            "sub_fields": [
                                {
                                    "key": "field_60714e3797dd5",
                                    "label": "Link",
                                    "name": "link",
                                    "type": "link",
                                    "instructions": "",
                                    "required": 1,
                                    "conditional_logic": 0,
                                    "wrapper": {
                                        "width": "",
                                        "class": "",
                                        "id": ""
                                    },
                                    "return_format": "array"
                                },
                                {
                                    "key": "field_60714e6097dd7",
                                    "label": "Foreground Color",
                                    "name": "foreground_color",
                                    "type": "select",
                                    "instructions": "",
                                    "required": 1,
                                    "conditional_logic": 0,
                                    "wrapper": {
                                        "width": "",
                                        "class": "",
                                        "id": ""
                                    },
                                    "choices": {
                                        "white": "Light",
                                        "black": "Dark"
                                    },
                                    "default_value": "white",
                                    "allow_null": 0,
                                    "multiple": 0,
                                    "ui": 0,
                                    "return_format": "value",
                                    "ajax": 0,
                                    "placeholder": ""
                                },
                                {
                                    "key": "field_60714e7e97dd8",
                                    "label": "Background Color",
                                    "name": "background_color",
                                    "type": "select",
                                    "instructions": "",
                                    "required": 1,
                                    "conditional_logic": 0,
                                    "wrapper": {
                                        "width": "",
                                        "class": "",
                                        "id": ""
                                    },
                                    "choices": {
                                        "white": "White",
                                        "wpi-red": "WPI Red",
                                        "blue": "Blue",
                                        "black": "Black",
                                        "navy-blue": "Navy Blue",
                                        "purple": "Purple",
                                        "green": "Green",
                                        "gray": "Gray",
                                        "orange-red": "Orange Red",
                                        "yellow": "Yellow"
                                    },
                                    "default_value": "blue",
                                    "allow_null": 0,
                                    "multiple": 0,
                                    "ui": 0,
                                    "return_format": "value",
                                    "ajax": 0,
                                    "placeholder": ""
                                }
                            ]
                        },
                        {
                            "key": "field_6077bb206ec42",
                            "label": "Heading Rule Color",
                            "name": "heading_rule_color",
                            "type": "select",
                            "instructions": "",
                            "required": 0,
                            "conditional_logic": 0,
                            "wrapper": {
                                "width": "",
                                "class": "",
                                "id": ""
                            },
                            "choices": {
                                "none": "None",
                                "white": "White",
                                "wpi-red": "WPI Red",
                                "blue": "Blue",
                                "black": "Black",
                                "navy-blue": "Navy Blue",
                                "purple": "Purple",
                                "green": "Green",
                                "gray": "Gray",
                                "orange-red": "Orange Red",
                                "yellow": "Yellow"
                            },
                            "default_value": "none",
                            "allow_null": 0,
                            "multiple": 0,
                            "ui": 0,
                            "return_format": "value",
                            "ajax": 0,
                            "placeholder": ""
                        },
                        {
                            "key": "field_6077bb686ec44",
                            "label": "Background Image",
                            "name": "background_image",
                            "type": "image",
                            "instructions": "",
                            "required": 0,
                            "conditional_logic": 0,
                            "wrapper": {
                                "width": "",
                                "class": "",
                                "id": ""
                            },
                            "return_format": "array",
                            "preview_size": "medium",
                            "library": "all",
                            "min_width": "",
                            "min_height": "",
                            "min_size": "",
                            "max_width": "",
                            "max_height": "",
                            "max_size": "",
                            "mime_types": ""
                        },
                        {
                            "key": "field_6077bb776ec45",
                            "label": "Background Image Alignment",
                            "name": "background_image_alignment",
                            "type": "select",
                            "instructions": "",
                            "required": 0,
                            "conditional_logic": [
                                [
                                    {
                                        "field": "field_6077bb686ec44",
                                        "operator": "!=empty"
                                    }
                                ]
                            ],
                            "wrapper": {
                                "width": "",
                                "class": "",
                                "id": ""
                            },
                            "choices": {
                                "right": "Right",
                                "left": "Left"
                            },
                            "default_value": "right",
                            "allow_null": 0,
                            "multiple": 0,
                            "ui": 0,
                            "return_format": "value",
                            "ajax": 0,
                            "placeholder": ""
                        },
                        {
                            "key": "field_6079d46dfb21c",
                            "label": "Heading",
                            "name": "heading",
                            "type": "text",
                            "instructions": "",
                            "required": 0,
                            "conditional_logic": 0,
                            "wrapper": {
                                "width": "",
                                "class": "",
                                "id": ""
                            },
                            "default_value": "",
                            "placeholder": "",
                            "prepend": "",
                            "append": "",
                            "maxlength": ""
                        },
                        {
                            "key": "field_6079d475fb21d",
                            "label": "Content",
                            "name": "content",
                            "type": "wysiwyg",
                            "instructions": "",
                            "required": 0,
                            "conditional_logic": 0,
                            "wrapper": {
                                "width": "",
                                "class": "",
                                "id": ""
                            },
                            "default_value": "",
                            "tabs": "all",
                            "toolbar": "full",
                            "media_upload": 1,
                            "delay": 0
                        },
                        {
                            "key": "field_6079d481fb21e",
                            "label": "Foreground Color",
                            "name": "foreground_color",
                            "type": "select",
                            "instructions": "",
                            "required": 0,
                            "conditional_logic": 0,
                            "wrapper": {
                                "width": "",
                                "class": "",
                                "id": ""
                            },
                            "choices": {
                                "white": "Light",
                                "black": "Dark"
                            },
                            "default_value": "black",
                            "allow_null": 0,
                            "multiple": 0,
                            "ui": 0,
                            "return_format": "value",
                            "ajax": 0,
                            "placeholder": ""
                        }
                    ],
                    "min": "",
                    "max": ""
                },
                "layout_60714f08b91be": {
                    "key": "layout_60714f08b91be",
                    "name": "sponsor_block",
                    "label": "Sponsor Block",
                    "display": "block",
                    "sub_fields": [
                        {
                            "key": "field_60714f14b91bf",
                            "label": "Title",
                            "name": "title",
                            "type": "text",
                            "instructions": "",
                            "required": 0,
                            "conditional_logic": 0,
                            "wrapper": {
                                "width": "",
                                "class": "",
                                "id": ""
                            },
                            "default_value": "",
                            "placeholder": "",
                            "prepend": "",
                            "append": "",
                            "maxlength": ""
                        },
                        {
                            "key": "field_60714f2eb91c0",
                            "label": "Sponsors",
                            "name": "sponsors",
                            "type": "repeater",
                            "instructions": "",
                            "required": 0,
                            "conditional_logic": 0,
                            "wrapper": {
                                "width": "",
                                "class": "",
                                "id": ""
                            },
                            "collapsed": "",
                            "min": 0,
                            "max": 0,
                            "layout": "table",
                            "button_label": "Add Sponsor",
                            "sub_fields": [
                                {
                                    "key": "field_60714f55b91c1",
                                    "label": "Sponsor Image",
                                    "name": "sponsor_image",
                                    "type": "image",
                                    "instructions": "",
                                    "required": 1,
                                    "conditional_logic": 0,
                                    "wrapper": {
                                        "width": "",
                                        "class": "",
                                        "id": ""
                                    },
                                    "return_format": "array",
                                    "preview_size": "medium",
                                    "library": "all",
                                    "min_width": "",
                                    "min_height": "",
                                    "min_size": "",
                                    "max_width": "",
                                    "max_height": "",
                                    "max_size": "",
                                    "mime_types": ""
                                },
                                {
                                    "key": "field_60714f68b91c2",
                                    "label": "Link",
                                    "name": "link",
                                    "type": "url",
                                    "instructions": "",
                                    "required": 1,
                                    "conditional_logic": 0,
                                    "wrapper": {
                                        "width": "",
                                        "class": "",
                                        "id": ""
                                    },
                                    "default_value": "",
                                    "placeholder": ""
                                },
                                {
                                    "key": "field_60714f72b91c3",
                                    "label": "Open link in a new tab?",
                                    "name": "open_link_in_a_new_tab",
                                    "type": "true_false",
                                    "instructions": "",
                                    "required": 1,
                                    "conditional_logic": 0,
                                    "wrapper": {
                                        "width": "",
                                        "class": "",
                                        "id": ""
                                    },
                                    "message": "",
                                    "default_value": 1,
                                    "ui": 0,
                                    "ui_on_text": "",
                                    "ui_off_text": ""
                                }
                            ]
                        },
                        {
                            "key": "field_60714fa3b91c4",
                            "label": "Button",
                            "name": "button",
                            "type": "link",
                            "instructions": "",
                            "required": 0,
                            "conditional_logic": 0,
                            "wrapper": {
                                "width": "",
                                "class": "",
                                "id": ""
                            },
                            "return_format": "array"
                        },
                        {
                            "key": "field_60714fb7b91c5",
                            "label": "Button Style",
                            "name": "button_style",
                            "type": "select",
                            "instructions": "",
                            "required": 0,
                            "conditional_logic": 0,
                            "wrapper": {
                                "width": "",
                                "class": "",
                                "id": ""
                            },
                            "choices": {
                                "solid": "Solid",
                                "lined": "Outline"
                            },
                            "default_value": "solid",
                            "allow_null": 0,
                            "multiple": 0,
                            "ui": 0,
                            "return_format": "value",
                            "ajax": 0,
                            "placeholder": ""
                        },
                        {
                            "key": "field_60714fe1b91c6",
                            "label": "Button Foreground Color",
                            "name": "button_foreground_color",
                            "type": "select",
                            "instructions": "",
                            "required": 0,
                            "conditional_logic": 0,
                            "wrapper": {
                                "width": "",
                                "class": "",
                                "id": ""
                            },
                            "choices": {
                                "white": "Light",
                                "black": "Dark"
                            },
                            "default_value": "white",
                            "allow_null": 0,
                            "multiple": 0,
                            "ui": 0,
                            "return_format": "value",
                            "ajax": 0,
                            "placeholder": ""
                        },
                        {
                            "key": "field_60714ffcb91c7",
                            "label": "Button Background Color",
                            "name": "button_background_color",
                            "type": "select",
                            "instructions": "",
                            "required": 0,
                            "conditional_logic": 0,
                            "wrapper": {
                                "width": "",
                                "class": "",
                                "id": ""
                            },
                            "choices": {
                                "white": "White",
                                "wpi-red": "WPI Red",
                                "blue": "Blue",
                                "black": "Black",
                                "navy-blue": "Navy Blue",
                                "purple": "Purple",
                                "green": "Green",
                                "gray": "Gray",
                                "orange-red": "Orange Red",
                                "yellow": "Yellow"
                            },
                            "default_value": "blue",
                            "allow_null": 0,
                            "multiple": 0,
                            "ui": 0,
                            "return_format": "value",
                            "ajax": 0,
                            "placeholder": ""
                        },
                        {
                            "key": "field_6077b91248d86",
                            "label": "Sponsor Image Size",
                            "name": "sponsor_image_size",
                            "type": "select",
                            "instructions": "",
                            "required": 0,
                            "conditional_logic": 0,
                            "wrapper": {
                                "width": "",
                                "class": "",
                                "id": ""
                            },
                            "choices": {
                                "small": "Small",
                                "large": "Large"
                            },
                            "default_value": "small",
                            "allow_null": 0,
                            "multiple": 0,
                            "ui": 0,
                            "return_format": "value",
                            "ajax": 0,
                            "placeholder": ""
                        },
                        {
                            "key": "field_6077b89b48d82",
                            "label": "Heading Rule Color",
                            "name": "heading_rule_color",
                            "type": "select",
                            "instructions": "",
                            "required": 0,
                            "conditional_logic": 0,
                            "wrapper": {
                                "width": "",
                                "class": "",
                                "id": ""
                            },
                            "choices": {
                                "none": "None",
                                "white": "White",
                                "wpi-red": "WPI Red",
                                "blue": "Blue",
                                "black": "Black",
                                "navy-blue": "Navy Blue",
                                "purple": "Purple",
                                "green": "Green",
                                "gray": "Gray",
                                "orange-red": "Orange Red",
                                "yellow": "Yellow"
                            },
                            "default_value": "none",
                            "allow_null": 0,
                            "multiple": 0,
                            "ui": 0,
                            "return_format": "value",
                            "ajax": 0,
                            "placeholder": ""
                        },
                        {
                            "key": "field_6077b8be48d83",
                            "label": "Background Color",
                            "name": "background_color",
                            "type": "select",
                            "instructions": "",
                            "required": 0,
                            "conditional_logic": 0,
                            "wrapper": {
                                "width": "",
                                "class": "",
                                "id": ""
                            },
                            "choices": {
                                "white": "White",
                                "gray": "Gray"
                            },
                            "default_value": "white",
                            "allow_null": 0,
                            "multiple": 0,
                            "ui": 0,
                            "return_format": "value",
                            "ajax": 0,
                            "placeholder": ""
                        },
                        {
                            "key": "field_6077b8e048d84",
                            "label": "Background Image",
                            "name": "background_image",
                            "type": "image",
                            "instructions": "",
                            "required": 0,
                            "conditional_logic": 0,
                            "wrapper": {
                                "width": "",
                                "class": "",
                                "id": ""
                            },
                            "return_format": "array",
                            "preview_size": "medium",
                            "library": "all",
                            "min_width": "",
                            "min_height": "",
                            "min_size": "",
                            "max_width": "",
                            "max_height": "",
                            "max_size": "",
                            "mime_types": ""
                        },
                        {
                            "key": "field_6077b8ee48d85",
                            "label": "Background Image Alignment",
                            "name": "background_image_alignment",
                            "type": "select",
                            "instructions": "",
                            "required": 0,
                            "conditional_logic": [
                                [
                                    {
                                        "field": "field_6077b8e048d84",
                                        "operator": "!=empty"
                                    }
                                ]
                            ],
                            "wrapper": {
                                "width": "",
                                "class": "",
                                "id": ""
                            },
                            "choices": {
                                "left": "Left",
                                "right": "Right"
                            },
                            "default_value": "left",
                            "allow_null": 0,
                            "multiple": 0,
                            "ui": 0,
                            "return_format": "value",
                            "ajax": 0,
                            "placeholder": ""
                        }
                    ],
                    "min": "",
                    "max": ""
                },
                "layout_6071509031cfe": {
                    "key": "layout_6071509031cfe",
                    "name": "social_media",
                    "label": "Social Media",
                    "display": "block",
                    "sub_fields": [
                        {
                            "key": "field_607150e931cff",
                            "label": "Foreground Color",
                            "name": "foreground_color",
                            "type": "select",
                            "instructions": "",
                            "required": 0,
                            "conditional_logic": 0,
                            "wrapper": {
                                "width": "",
                                "class": "",
                                "id": ""
                            },
                            "choices": {
                                "white": "Light",
                                "black": "Dark"
                            },
                            "default_value": "black",
                            "allow_null": 0,
                            "multiple": 0,
                            "ui": 0,
                            "return_format": "value",
                            "ajax": 0,
                            "placeholder": ""
                        },
                        {
                            "key": "field_6071510531d00",
                            "label": "Background Color",
                            "name": "background_color",
                            "type": "select",
                            "instructions": "",
                            "required": 0,
                            "conditional_logic": 0,
                            "wrapper": {
                                "width": "",
                                "class": "",
                                "id": ""
                            },
                            "choices": {
                                "white": "White",
                                "wpi-red": "WPI Red",
                                "blue": "Blue",
                                "black": "Black",
                                "navy-blue": "Navy Blue",
                                "purple": "Purple",
                                "green": "Green",
                                "gray": "Gray",
                                "orange-red": "Orange Red",
                                "yellow": "Yellow"
                            },
                            "default_value": "gray",
                            "allow_null": 0,
                            "multiple": 0,
                            "ui": 0,
                            "return_format": "value",
                            "ajax": 0,
                            "placeholder": ""
                        },
                        {
                            "key": "field_6071513831d01",
                            "label": "Social Media Icons",
                            "name": "social_media_icons",
                            "type": "repeater",
                            "instructions": "",
                            "required": 0,
                            "conditional_logic": 0,
                            "wrapper": {
                                "width": "",
                                "class": "",
                                "id": ""
                            },
                            "collapsed": "",
                            "min": 0,
                            "max": 0,
                            "layout": "table",
                            "button_label": "Add Social Media Icon",
                            "sub_fields": [
                                {
                                    "key": "field_6071515831d02",
                                    "label": "Link",
                                    "name": "link",
                                    "type": "link",
                                    "instructions": "",
                                    "required": 1,
                                    "conditional_logic": 0,
                                    "wrapper": {
                                        "width": "",
                                        "class": "",
                                        "id": ""
                                    },
                                    "return_format": "array"
                                },
                                {
                                    "key": "field_6071516831d03",
                                    "label": "Icon",
                                    "name": "icon",
                                    "type": "image",
                                    "instructions": "",
                                    "required": 1,
                                    "conditional_logic": 0,
                                    "wrapper": {
                                        "width": "",
                                        "class": "",
                                        "id": ""
                                    },
                                    "return_format": "array",
                                    "preview_size": "thumbnail",
                                    "library": "all",
                                    "min_width": "",
                                    "min_height": "",
                                    "min_size": "",
                                    "max_width": "",
                                    "max_height": "",
                                    "max_size": "",
                                    "mime_types": ""
                                }
                            ]
                        }
                    ],
                    "min": "",
                    "max": ""
                },
                "layout_60741841bda39": {
                    "key": "layout_60741841bda39",
                    "name": "activity_box",
                    "label": "Activity Box",
                    "display": "block",
                    "sub_fields": [
                        {
                            "key": "field_60741841bda3a",
                            "label": "Source",
                            "name": "source",
                            "type": "select",
                            "instructions": "",
                            "required": 0,
                            "conditional_logic": 0,
                            "wrapper": {
                                "width": "",
                                "class": "",
                                "id": ""
                            },
                            "choices": {
                                "Manual": "Manual",
                                "Activity": "Activity"
                            },
                            "default_value": "Activity",
                            "allow_null": 0,
                            "multiple": 0,
                            "ui": 0,
                            "return_format": "value",
                            "ajax": 0,
                            "placeholder": ""
                        },
                        {
                            "key": "field_60741841bda3b",
                            "label": "Activity",
                            "name": "activity",
                            "type": "post_object",
                            "instructions": "",
                            "required": 1,
                            "conditional_logic": [
                                [
                                    {
                                        "field": "field_60741841bda3a",
                                        "operator": "==",
                                        "value": "Activity"
                                    }
                                ]
                            ],
                            "wrapper": {
                                "width": "",
                                "class": "",
                                "id": ""
                            },
                            "post_type": [
                                "activity"
                            ],
                            "taxonomy": "",
                            "allow_null": 0,
                            "multiple": 0,
                            "return_format": "object",
                            "ui": 1
                        },
                        {
                            "key": "field_60741841bda3c",
                            "label": "Image",
                            "name": "image",
                            "type": "image",
                            "instructions": "",
                            "required": 1,
                            "conditional_logic": [
                                [
                                    {
                                        "field": "field_60741841bda3a",
                                        "operator": "==",
                                        "value": "Manual"
                                    }
                                ]
                            ],
                            "wrapper": {
                                "width": "",
                                "class": "",
                                "id": ""
                            },
                            "return_format": "array",
                            "preview_size": "medium",
                            "library": "all",
                            "min_width": "",
                            "min_height": "",
                            "min_size": "",
                            "max_width": "",
                            "max_height": "",
                            "max_size": "",
                            "mime_types": ""
                        },
                        {
                            "key": "field_60741841bda3d",
                            "label": "Image Alignment",
                            "name": "image_alignment",
                            "type": "select",
                            "instructions": "",
                            "required": 0,
                            "conditional_logic": 0,
                            "wrapper": {
                                "width": "",
                                "class": "",
                                "id": ""
                            },
                            "choices": {
                                "Left": "Left",
                                "Right": "Right"
                            },
                            "default_value": "Left",
                            "allow_null": 0,
                            "multiple": 0,
                            "ui": 0,
                            "return_format": "value",
                            "ajax": 0,
                            "placeholder": ""
                        },
                        {
                            "key": "field_60741841bda3e",
                            "label": "YouTube Video URL",
                            "name": "youtube_video_url",
                            "type": "url",
                            "instructions": "Optional. If provided, the Image will be linked to the video which will open in a lightbox",
                            "required": 0,
                            "conditional_logic": [
                                [
                                    {
                                        "field": "field_60741841bda3a",
                                        "operator": "==",
                                        "value": "Manual"
                                    }
                                ]
                            ],
                            "wrapper": {
                                "width": "",
                                "class": "",
                                "id": ""
                            },
                            "default_value": "",
                            "placeholder": ""
                        },
                        {
                            "key": "field_60741841bda3f",
                            "label": "Heading",
                            "name": "heading",
                            "type": "text",
                            "instructions": "",
                            "required": 1,
                            "conditional_logic": [
                                [
                                    {
                                        "field": "field_60741841bda3a",
                                        "operator": "==",
                                        "value": "Manual"
                                    }
                                ]
                            ],
                            "wrapper": {
                                "width": "",
                                "class": "",
                                "id": ""
                            },
                            "default_value": "",
                            "placeholder": "",
                            "prepend": "",
                            "append": "",
                            "maxlength": ""
                        },
                        {
                            "key": "field_60741841bda40",
                            "label": "Content",
                            "name": "content",
                            "type": "wysiwyg",
                            "instructions": "",
                            "required": 1,
                            "conditional_logic": [
                                [
                                    {
                                        "field": "field_60741841bda3a",
                                        "operator": "==",
                                        "value": "Manual"
                                    }
                                ]
                            ],
                            "wrapper": {
                                "width": "",
                                "class": "",
                                "id": ""
                            },
                            "default_value": "",
                            "tabs": "all",
                            "toolbar": "full",
                            "media_upload": 0,
                            "delay": 0
                        }
                    ],
                    "min": "",
                    "max": ""
                },
                "layout_6077bbf1f13fd": {
                    "key": "layout_6077bbf1f13fd",
                    "name": "carousel_gallery",
                    "label": "Carousel Gallery",
                    "display": "block",
                    "sub_fields": [
                        {
                            "key": "field_6077bc05f13fe",
                            "label": "Heading",
                            "name": "heading",
                            "type": "text",
                            "instructions": "",
                            "required": 0,
                            "conditional_logic": 0,
                            "wrapper": {
                                "width": "",
                                "class": "",
                                "id": ""
                            },
                            "default_value": "",
                            "placeholder": "",
                            "prepend": "",
                            "append": "",
                            "maxlength": ""
                        },
                        {
                            "key": "field_6077bc0ff13ff",
                            "label": "Slides",
                            "name": "slides",
                            "type": "repeater",
                            "instructions": "",
                            "required": 0,
                            "conditional_logic": 0,
                            "wrapper": {
                                "width": "",
                                "class": "",
                                "id": ""
                            },
                            "collapsed": "",
                            "min": 0,
                            "max": 0,
                            "layout": "row",
                            "button_label": "Add Slide",
                            "sub_fields": [
                                {
                                    "key": "field_6077bc20f1400",
                                    "label": "Image",
                                    "name": "image",
                                    "type": "image",
                                    "instructions": "",
                                    "required": 1,
                                    "conditional_logic": 0,
                                    "wrapper": {
                                        "width": "",
                                        "class": "",
                                        "id": ""
                                    },
                                    "return_format": "array",
                                    "preview_size": "medium",
                                    "library": "all",
                                    "min_width": "",
                                    "min_height": "",
                                    "min_size": "",
                                    "max_width": "",
                                    "max_height": "",
                                    "max_size": "",
                                    "mime_types": ""
                                },
                                {
                                    "key": "field_6087325f8d8d0",
                                    "label": "Link Type",
                                    "name": "link_type",
                                    "type": "select",
                                    "instructions": "",
                                    "required": 0,
                                    "conditional_logic": 0,
                                    "wrapper": {
                                        "width": "",
                                        "class": "",
                                        "id": ""
                                    },
                                    "choices": {
                                        "none": "None",
                                        "url": "URL",
                                        "video": "YouTube Video"
                                    },
                                    "default_value": "none",
                                    "allow_null": 0,
                                    "multiple": 0,
                                    "ui": 1,
                                    "ajax": 0,
                                    "return_format": "value",
                                    "placeholder": ""
                                },
                                {
                                    "key": "field_6077bc2ff1401",
                                    "label": "YouTube URL",
                                    "name": "youtube_url",
                                    "type": "url",
                                    "instructions": "Optional. Provide a YouTube URL to link to the video in a lightbox",
                                    "required": 0,
                                    "conditional_logic": [
                                        [
                                            {
                                                "field": "field_6087325f8d8d0",
                                                "operator": "==",
                                                "value": "video"
                                            }
                                        ]
                                    ],
                                    "wrapper": {
                                        "width": "",
                                        "class": "",
                                        "id": ""
                                    },
                                    "default_value": "",
                                    "placeholder": ""
                                },
                                {
                                    "key": "field_608732a78d8d1",
                                    "label": "Link URL",
                                    "name": "link_url",
                                    "type": "url",
                                    "instructions": "Optional. Provide a URL to link the slide image to.",
                                    "required": 0,
                                    "conditional_logic": [
                                        [
                                            {
                                                "field": "field_6087325f8d8d0",
                                                "operator": "==",
                                                "value": "url"
                                            }
                                        ]
                                    ],
                                    "wrapper": {
                                        "width": "",
                                        "class": "",
                                        "id": ""
                                    },
                                    "default_value": "",
                                    "placeholder": ""
                                },
                                {
                                    "key": "field_6077bc49f1402",
                                    "label": "Caption",
                                    "name": "caption",
                                    "type": "textarea",
                                    "instructions": "",
                                    "required": 1,
                                    "conditional_logic": 0,
                                    "wrapper": {
                                        "width": "",
                                        "class": "",
                                        "id": ""
                                    },
                                    "default_value": "",
                                    "placeholder": "",
                                    "maxlength": "",
                                    "rows": 4,
                                    "new_lines": ""
                                },
                                {
                                    "key": "field_60886be5e3b7a",
                                    "label": "Section",
                                    "name": "section",
                                    "type": "taxonomy",
                                    "instructions": "Optional. The selected Section will appear in the corner of the slide image.",
                                    "required": 0,
                                    "conditional_logic": 0,
                                    "wrapper": {
                                        "width": "",
                                        "class": "",
                                        "id": ""
                                    },
                                    "taxonomy": "section",
                                    "field_type": "select",
                                    "allow_null": 1,
                                    "add_term": 0,
                                    "save_terms": 0,
                                    "load_terms": 0,
                                    "return_format": "id",
                                    "multiple": 0
                                }
                            ]
                        },
                        {
                            "key": "field_6077bcc6f1406",
                            "label": "Background Color",
                            "name": "background_color",
                            "type": "select",
                            "instructions": "",
                            "required": 0,
                            "conditional_logic": 0,
                            "wrapper": {
                                "width": "",
                                "class": "",
                                "id": ""
                            },
                            "choices": {
                                "white": "White",
                                "wpi-red": "WPI Red",
                                "blue": "Blue",
                                "black": "Black",
                                "navy-blue": "Navy Blue",
                                "purple": "Purple",
                                "green": "Green",
                                "gray": "Gray",
                                "orange-red": "Orange Red",
                                "yellow": "Yellow"
                            },
                            "default_value": "white",
                            "allow_null": 0,
                            "multiple": 0,
                            "ui": 0,
                            "return_format": "value",
                            "ajax": 0,
                            "placeholder": ""
                        },
                        {
                            "key": "field_6079d4c4fb21f",
                            "label": "Foreground Color",
                            "name": "foreground_color",
                            "type": "select",
                            "instructions": "",
                            "required": 0,
                            "conditional_logic": 0,
                            "wrapper": {
                                "width": "",
                                "class": "",
                                "id": ""
                            },
                            "choices": {
                                "white": "Light",
                                "black": "Dark"
                            },
                            "default_value": "black",
                            "allow_null": 0,
                            "multiple": 0,
                            "ui": 0,
                            "return_format": "value",
                            "ajax": 0,
                            "placeholder": ""
                        }
                    ],
                    "min": "",
                    "max": ""
                },
                "layout_608860d016d37": {
                    "key": "layout_608860d016d37",
                    "name": "divider",
                    "label": "Divider",
                    "display": "block",
                    "sub_fields": [
                        {
                            "key": "field_608860d616d38",
                            "label": "Divider",
                            "name": "",
                            "type": "message",
                            "instructions": "",
                            "required": 0,
                            "conditional_logic": 0,
                            "wrapper": {
                                "width": "",
                                "class": "",
                                "id": ""
                            },
                            "message": "Gray horizontal rule",
                            "new_lines": "wpautop",
                            "esc_html": 0
                        }
                    ],
                    "min": "",
                    "max": ""
                }
            },
            "button_label": "Add Flexible Content Row",
            "min": "",
            "max": ""
        }
    ],
    "location": [
        [
            {
                "param": "post_type",
                "operator": "==",
                "value": "page"
            }
        ],
        [
            {
                "param": "post_type",
                "operator": "==",
                "value": "activity"
            }
        ]
    ],
    "menu_order": 0,
    "position": "normal",
    "style": "default",
    "label_placement": "top",
    "instruction_placement": "label",
    "hide_on_screen": "",
    "active": 1,
    "description": "",
    "modified": 1621264013
}