<svg xmlns="http://www.w3.org/2000/svg" width="50" height="50" viewBox="0 0 50 50">
  <g id="Group_9" data-name="Group 9" transform="translate(1 1)">
    <circle id="Oval" cx="24" cy="24" r="24" fill="none" stroke="#fff" stroke-miterlimit="10" stroke-width="2" opacity="0.6"/>
    <path id="fill" d="M2.707,18V9.949H0V6.75H2.707V4.219A4.168,4.168,0,0,1,3.832,1.107,4.075,4.075,0,0,1,6.82,0,17.413,17.413,0,0,1,9.281.141V2.988H7.594a1.632,1.632,0,0,0-1.3.422,1.8,1.8,0,0,0-.281,1.125V6.75H9l-.422,3.2H6.012V18Z" transform="translate(19.04 15)" fill="#fff"/>
  </g>
</svg>
