<?xml version="1.0" encoding="UTF-8"?>
<svg width="24px" height="24px" viewBox="0 0 24 24" version="1.1" xmlns="http://www.w3.org/2000/svg" xmlns:xlink="http://www.w3.org/1999/xlink">
    <title>icons/instagram</title>
    <g id="icons/instagram" stroke="none" stroke-width="1" fill="none" fill-rule="evenodd">
        <path d="M11.5082031,6.11757813 C8.52695313,6.11757813 6.12226562,8.52226563 6.12226562,11.5035156 C6.12226562,14.4847656 8.52695313,16.8894531 11.5082031,16.8894531 C14.4894531,16.8894531 16.8941406,14.4847656 16.8941406,11.5035156 C16.8941406,8.52226563 14.4894531,6.11757813 11.5082031,6.11757813 Z M11.5082031,15.0050781 C9.58164063,15.0050781 8.00664063,13.4347656 8.00664063,11.5035156 C8.00664063,9.57226563 9.57695313,8.00195313 11.5082031,8.00195313 C13.4394531,8.00195313 15.0097656,9.57226563 15.0097656,11.5035156 C15.0097656,13.4347656 13.4347656,15.0050781 11.5082031,15.0050781 L11.5082031,15.0050781 Z M18.3707031,5.89726563 C18.3707031,6.59570313 17.8082031,7.15351563 17.1144531,7.15351563 C16.4160156,7.15351563 15.8582031,6.59101563 15.8582031,5.89726563 C15.8582031,5.20351563 16.4207031,4.64101563 17.1144531,4.64101563 C17.8082031,4.64101563 18.3707031,5.20351563 18.3707031,5.89726563 Z M21.9378906,7.17226563 C21.8582031,5.48945313 21.4738281,3.99882813 20.2410156,2.77070313 C19.0128906,1.54257813 17.5222656,1.15820313 15.8394531,1.07382813 C14.1050781,0.975390625 8.90664063,0.975390625 7.17226563,1.07382813 C5.49414063,1.15351563 4.00351563,1.53789063 2.77070313,2.76601563 C1.53789062,3.99414063 1.15820313,5.48476563 1.07382812,7.16757813 C0.975390625,8.90195313 0.975390625,14.1003906 1.07382812,15.8347656 C1.15351563,17.5175781 1.53789063,19.0082031 2.77070313,20.2363281 C4.00351563,21.4644531 5.48945313,21.8488281 7.17226563,21.9332031 C8.90664063,22.0316406 14.1050781,22.0316406 15.8394531,21.9332031 C17.5222656,21.8535156 19.0128906,21.4691406 20.2410156,20.2363281 C21.4691406,19.0082031 21.8535156,17.5175781 21.9378906,15.8347656 C22.0363281,14.1003906 22.0363281,8.90664063 21.9378906,7.17226563 Z M19.6972656,17.6957031 C19.3316406,18.6144531 18.6238281,19.3222656 17.7003906,19.6925781 C16.3175781,20.2410156 13.0363281,20.1144531 11.5082031,20.1144531 C9.98007813,20.1144531 6.69414063,20.2363281 5.31601563,19.6925781 C4.39726563,19.3269531 3.68945313,18.6191406 3.31914063,17.6957031 C2.77070313,16.3128906 2.89726563,13.0316406 2.89726563,11.5035156 C2.89726563,9.97539063 2.77539063,6.68945313 3.31914063,5.31132813 C3.68476563,4.39257813 4.39257813,3.68476563 5.31601563,3.31445313 C6.69882813,2.76601563 9.98007813,2.89257813 11.5082031,2.89257813 C13.0363281,2.89257813 16.3222656,2.77070313 17.7003906,3.31445313 C18.6191406,3.68007813 19.3269531,4.38789063 19.6972656,5.31132813 C20.2457031,6.69414063 20.1191406,9.97539063 20.1191406,11.5035156 C20.1191406,13.0316406 20.2457031,16.3175781 19.6972656,17.6957031 Z" id="icon" fill="#e1306c" fill-rule="nonzero"></path>
    </g>
</svg>