<svg xmlns="http://www.w3.org/2000/svg" width="50" height="50" viewBox="0 0 50 50">
  <g id="Group_11" data-name="Group 11" transform="translate(1 1)">
    <circle id="Oval" cx="24" cy="24" r="24" fill="none" stroke="#fff" stroke-miterlimit="10" stroke-width="2" opacity="0.6"/>
    <path id="fill" d="M13.2,12a3.585,3.585,0,0,1,3.6,3.6,3.585,3.585,0,0,1-3.6,3.6,3.585,3.585,0,0,1-3.6-3.6,4.009,4.009,0,0,1,.075-.788l-3.825-2.4A3.478,3.478,0,0,1,3.6,13.2a3.472,3.472,0,0,1-2.55-1.05A3.472,3.472,0,0,1,0,9.6,3.472,3.472,0,0,1,1.05,7.05,3.472,3.472,0,0,1,3.6,6a3.478,3.478,0,0,1,2.25.787l3.825-2.4A4.009,4.009,0,0,1,9.6,3.6a3.472,3.472,0,0,1,1.05-2.55,3.621,3.621,0,0,1,5.1,0A3.472,3.472,0,0,1,16.8,3.6a3.472,3.472,0,0,1-1.05,2.55,3.615,3.615,0,0,1-4.8.262l-3.825,2.4a4.172,4.172,0,0,1,0,1.575l3.825,2.4A3.478,3.478,0,0,1,13.2,12Z" transform="translate(15.244 14.4)" fill="#fff"/>
  </g>
</svg>
