<?xml version="1.0" encoding="utf-8"?>
<svg width="180px" height="9px" viewBox="0 0 180 9" version="1.1" xmlns:xlink="http://www.w3.org/1999/xlink" xmlns="http://www.w3.org/2000/svg">
  <desc>Created with Lunacy</desc>
  <g id="Group-7">
    <path d="M5.99376 0L2.99688 9L0 9L2.99688 0L5.99376 0ZM8.99063 9L11.9875 0L8.99063 0L5.99376 9L8.99063 9ZM17.9813 0L14.9844 9L11.9875 9L14.9844 0L17.9813 0ZM20.9781 9L23.975 0L20.9781 0L17.9813 9L20.9781 9ZM29.9688 0L26.9719 9L23.975 9L26.9719 0L29.9688 0ZM32.9657 9L35.9625 0L32.9657 0L29.9688 9L32.9657 9ZM41.9563 0L38.9594 9L35.9625 9L38.9594 0L41.9563 0ZM44.9532 9L47.9501 0L44.9532 0L41.9563 9L44.9532 9ZM53.9438 0L50.9469 9L47.9501 9L50.9469 0L53.9438 0ZM56.9407 9L59.9376 0L56.9407 0L53.9438 9L56.9407 9ZM65.9313 0L62.9344 9L59.9376 9L62.9344 0L65.9313 0ZM68.9282 9L71.9251 0L68.9282 0L65.9313 9L68.9282 9ZM77.9188 0L74.922 9L71.9251 9L74.922 0L77.9188 0ZM80.9157 9L83.9126 0L80.9157 0L77.9188 9L80.9157 9ZM89.9063 0L86.9095 9L83.9126 9L86.9095 0L89.9063 0ZM92.9032 9L95.9001 0L92.9032 0L89.9063 9L92.9032 9ZM101.894 0L98.897 9L95.9001 9L98.897 0L101.894 0ZM104.891 9L107.888 0L104.891 0L101.894 9L104.891 9ZM113.881 0L110.884 9L107.888 9L110.884 0L113.881 0ZM116.878 9L119.875 0L116.878 0L113.881 9L116.878 9ZM125.869 0L122.872 9L119.875 9L122.872 0L125.869 0ZM128.866 9L131.863 0L128.866 0L125.869 9L128.866 9ZM137.856 0L134.86 9L131.863 9L134.86 0L137.856 0ZM140.853 9L143.85 0L140.853 0L137.856 9L140.853 9ZM149.844 0L146.847 9L143.85 9L146.847 0L149.844 0ZM152.841 9L155.838 0L152.841 0L149.844 9L152.841 9ZM161.831 0L158.835 9L155.838 9L158.835 0L161.831 0ZM164.828 9L167.825 0L164.828 0L161.831 9L164.828 9ZM173.819 0L170.822 9L167.825 9L170.822 0L173.819 0ZM176.816 9L179.813 0L176.816 0L173.819 9L176.816 9Z" id="Shape" fill="#545459" fill-rule="evenodd" stroke="none" />
  </g>
</svg>