<?xml version="1.0" encoding="utf-8"?>
<svg width="720px" height="9px" viewBox="0 0 720 9" version="1.1" xmlns:xlink="http://www.w3.org/1999/xlink" xmlns="http://www.w3.org/2000/svg">
  <desc>Created with Lunacy</desc>
  <g id="Group-7">
    <path d="M5.99376 0L2.99688 9L0 9L2.99688 0L5.99376 0ZM11.9875 0L8.99063 9L5.99376 9L8.99063 0L11.9875 0ZM17.9813 0L14.9844 9L11.9875 9L14.9844 0L17.9813 0ZM23.975 0L20.9781 9L17.9813 9L20.9781 0L23.975 0ZM29.9688 0L26.9719 9L23.975 9L26.9719 0L29.9688 0ZM35.9625 0L32.9657 9L29.9688 9L32.9657 0L35.9625 0ZM41.9563 0L38.9594 9L35.9625 9L38.9594 0L41.9563 0ZM47.9501 0L44.9532 9L41.9563 9L44.9532 0L47.9501 0ZM53.9438 0L50.9469 9L47.9501 9L50.9469 0L53.9438 0ZM59.9376 0L56.9407 9L53.9438 9L56.9407 0L59.9376 0ZM65.9313 0L62.9344 9L59.9376 9L62.9344 0L65.9313 0ZM71.9251 0L68.9282 9L65.9313 9L68.9282 0L71.9251 0ZM77.9188 0L74.922 9L71.9251 9L74.922 0L77.9188 0ZM83.9126 0L80.9157 9L77.9188 9L80.9157 0L83.9126 0ZM89.9063 0L86.9095 9L83.9126 9L86.9095 0L89.9063 0ZM95.9001 0L92.9032 9L89.9063 9L92.9032 0L95.9001 0ZM101.894 0L98.897 9L95.9001 9L98.897 0L101.894 0ZM107.888 0L104.891 9L101.894 9L104.891 0L107.888 0ZM113.881 0L110.884 9L107.888 9L110.884 0L113.881 0ZM119.875 0L116.878 9L113.881 9L116.878 0L119.875 0ZM125.869 0L122.872 9L119.875 9L122.872 0L125.869 0ZM131.863 0L128.866 9L125.869 9L128.866 0L131.863 0ZM137.856 0L134.86 9L131.863 9L134.86 0L137.856 0ZM143.85 0L140.853 9L137.856 9L140.853 0L143.85 0ZM149.844 0L146.847 9L143.85 9L146.847 0L149.844 0ZM155.838 0L152.841 9L149.844 9L152.841 0L155.838 0ZM161.831 0L158.835 9L155.838 9L158.835 0L161.831 0ZM167.825 0L164.828 9L161.831 9L164.828 0L167.825 0ZM173.819 0L170.822 9L167.825 9L170.822 0L173.819 0ZM179.813 0L176.816 9L173.819 9L176.816 0L179.813 0ZM185.806 0L182.81 9L179.813 9L182.81 0L185.806 0ZM191.8 0L188.803 9L185.806 9L188.803 0L191.8 0ZM197.794 0L194.797 9L191.8 9L194.797 0L197.794 0ZM203.788 0L200.791 9L197.794 9L200.791 0L203.788 0ZM209.781 0L206.785 9L203.788 9L206.785 0L209.781 0ZM215.775 0L212.778 9L209.781 9L212.778 0L215.775 0ZM221.769 0L218.772 9L215.775 9L218.772 0L221.769 0ZM227.763 0L224.766 9L221.769 9L224.766 0L227.763 0ZM233.757 0L230.76 9L227.763 9L230.76 0L233.757 0ZM239.75 0L236.753 9L233.757 9L236.753 0L239.75 0ZM245.744 0L242.747 9L239.75 9L242.747 0L245.744 0ZM251.738 0L248.741 9L245.744 9L248.741 0L251.738 0ZM257.732 0L254.735 9L251.738 9L254.735 0L257.732 0ZM263.725 0L260.728 9L257.732 9L260.728 0L263.725 0ZM269.719 0L266.722 9L263.725 9L266.722 0L269.719 0ZM275.713 0L272.716 9L269.719 9L272.716 0L275.713 0ZM281.707 0L278.71 9L275.713 9L278.71 0L281.707 0ZM287.7 0L284.703 9L281.707 9L284.703 0L287.7 0ZM293.694 0L290.697 9L287.7 9L290.697 0L293.694 0ZM299.688 0L296.691 9L293.694 9L296.691 0L299.688 0ZM305.682 0L302.685 9L299.688 9L302.685 0L305.682 0ZM311.675 0L308.678 9L305.682 9L308.678 0L311.675 0ZM317.669 0L314.672 9L311.675 9L314.672 0L317.669 0ZM323.663 0L320.666 9L317.669 9L320.666 0L323.663 0ZM329.657 0L326.66 9L323.663 9L326.66 0L329.657 0ZM335.65 0L332.654 9L329.657 9L332.654 0L335.65 0ZM341.644 0L338.647 9L335.65 9L338.647 0L341.644 0ZM347.638 0L344.641 9L341.644 9L344.641 0L347.638 0ZM353.632 0L350.635 9L347.638 9L350.635 0L353.632 0ZM359.625 0L356.628 9L353.632 9L356.628 0L359.625 0ZM365.619 0L362.622 9L359.625 9L362.622 0L365.619 0ZM371.613 0L368.616 9L365.619 9L368.616 0L371.613 0ZM377.607 0L374.61 9L371.613 9L374.61 0L377.607 0ZM383.6 0L380.604 9L377.607 9L380.604 0L383.6 0ZM389.594 0L386.597 9L383.6 9L386.597 0L389.594 0ZM395.588 0L392.591 9L389.594 9L392.591 0L395.588 0ZM401.582 0L398.585 9L395.588 9L398.585 0L401.582 0ZM407.575 0L404.579 9L401.582 9L404.579 0L407.575 0ZM413.569 0L410.572 9L407.575 9L410.572 0L413.569 0ZM419.563 0L416.566 9L413.569 9L416.566 0L419.563 0ZM425.557 0L422.56 9L419.563 9L422.56 0L425.557 0ZM431.55 0L428.554 9L425.557 9L428.554 0L431.55 0ZM437.544 0L434.547 9L431.55 9L434.547 0L437.544 0ZM443.538 0L440.541 9L437.544 9L440.541 0L443.538 0ZM449.532 0L446.535 9L443.538 9L446.535 0L449.532 0ZM455.525 0L452.529 9L449.532 9L452.529 0L455.525 0ZM461.519 0L458.522 9L455.525 9L458.522 0L461.519 0ZM467.513 0L464.516 9L461.519 9L464.516 0L467.513 0ZM473.507 0L470.51 9L467.513 9L470.51 0L473.507 0ZM479.501 0L476.504 9L473.507 9L476.504 0L479.501 0ZM485.494 0L482.497 9L479.501 9L482.497 0L485.494 0ZM491.488 0L488.491 9L485.494 9L488.491 0L491.488 0ZM497.482 0L494.485 9L491.488 9L494.485 0L497.482 0ZM503.476 0L500.479 9L497.482 9L500.479 0L503.476 0ZM509.469 0L506.472 9L503.476 9L506.472 0L509.469 0ZM515.463 0L512.466 9L509.469 9L512.466 0L515.463 0ZM521.457 0L518.46 9L515.463 9L518.46 0L521.457 0ZM527.451 0L524.454 9L521.457 9L524.454 0L527.451 0ZM533.444 0L530.447 9L527.451 9L530.447 0L533.444 0ZM539.438 0L536.441 9L533.444 9L536.441 0L539.438 0ZM545.432 0L542.435 9L539.438 9L542.435 0L545.432 0ZM551.426 0L548.429 9L545.432 9L548.429 0L551.426 0ZM557.419 0L554.422 9L551.426 9L554.422 0L557.419 0ZM563.413 0L560.416 9L557.419 9L560.416 0L563.413 0ZM569.407 0L566.41 9L563.413 9L566.41 0L569.407 0ZM575.401 0L572.404 9L569.407 9L572.404 0L575.401 0ZM581.394 0L578.398 9L575.401 9L578.398 0L581.394 0ZM587.388 0L584.391 9L581.394 9L584.391 0L587.388 0ZM593.382 0L590.385 9L587.388 9L590.385 0L593.382 0ZM599.376 0L596.379 9L593.382 9L596.379 0L599.376 0ZM605.369 0L602.373 9L599.376 9L602.373 0L605.369 0ZM611.363 0L608.366 9L605.369 9L608.366 0L611.363 0ZM617.357 0L614.36 9L611.363 9L614.36 0L617.357 0ZM623.351 0L620.354 9L617.357 9L620.354 0L623.351 0ZM629.344 0L626.348 9L623.351 9L626.348 0L629.344 0ZM635.338 0L632.341 9L629.344 9L632.341 0L635.338 0ZM641.332 0L638.335 9L635.338 9L638.335 0L641.332 0ZM647.326 0L644.329 9L641.332 9L644.329 0L647.326 0ZM653.319 0L650.323 9L647.326 9L650.323 0L653.319 0ZM659.313 0L656.316 9L653.319 9L656.316 0L659.313 0ZM665.307 0L662.31 9L659.313 9L662.31 0L665.307 0ZM671.301 0L668.304 9L665.307 9L668.304 0L671.301 0ZM677.294 0L674.298 9L671.301 9L674.298 0L677.294 0ZM683.288 0L680.291 9L677.294 9L680.291 0L683.288 0ZM689.282 0L686.285 9L683.288 9L686.285 0L689.282 0ZM695.276 0L692.279 9L689.282 9L692.279 0L695.276 0ZM701.27 0L698.273 9L695.276 9L698.273 0L701.27 0ZM707.263 0L704.266 9L701.27 9L704.266 0L707.263 0ZM713.257 0L710.26 9L707.263 9L710.26 0L713.257 0ZM719.251 0L716.254 9L713.257 9L716.254 0L719.251 0Z" id="Shape" fill="#EEEEEE" stroke="none" />
  </g>
</svg>