<?xml version="1.0" encoding="utf-8"?>
<svg width="12px" height="12px" viewBox="0 0 12 12" version="1.1" xmlns:xlink="http://www.w3.org/1999/xlink" xmlns="http://www.w3.org/2000/svg">
  <path d="M0 0L5.14286 0L5.14286 5.14286L0 5.14286L0 0ZM12 0L6.85715 0L6.85715 5.14286L12 5.14286L12 0ZM0 6.85714L5.14286 6.85714L5.14286 12L0 12L0 6.85714ZM12 6.85714L6.85715 6.85714L6.85715 12L12 12L12 6.85714Z" id="Combined-Shape" fill="#000000" fill-rule="evenodd" stroke="none" />
</svg>