<?xml version="1.0" encoding="UTF-8"?>
<svg width="24px" height="24px" viewBox="0 0 24 24" version="1.1" xmlns="http://www.w3.org/2000/svg" xmlns:xlink="http://www.w3.org/1999/xlink">
    <!-- Generator: Sketch 53.2 (72643) - https://sketchapp.com -->
    <title>Iconography/Arrow/down</title>
    <desc>Created with Sketch.</desc>
    <g id="Iconography/Arrow/down" stroke="none" stroke-width="1" fill="none" fill-rule="evenodd">
        <polygon id="fill" fill="#ac2b37" points="10.8 16.4769553 10.8 2 13.2 2 13.2 16.6190909 17.4450793 12.3740115 19.1421356 14.0710678 12.0710678 21.1421356 5 14.0710678 6.69705627 12.3740115"></polygon>
    </g>
</svg>