<?xml version="1.0" encoding="UTF-8"?>
<svg width="24px" height="24px" viewBox="0 0 24 24" version="1.1" xmlns="http://www.w3.org/2000/svg" xmlns:xlink="http://www.w3.org/1999/xlink">
    <!-- Generator: Sketch 53.2 (72643) - https://sketchapp.com -->
    <title>Iconography/Chev/up</title>
    <desc>Created with Sketch.</desc>
    <g id="Iconography/Chev/up" stroke="none" stroke-width="1" fill="none" fill-rule="evenodd">
        <polygon id="fill" fill="#19191A" points="4 15.1818182 12 7.18181818 20 15.1818182 18.3636364 16.8181818 12 10.4545455 5.63636364 16.8181818"></polygon>
    </g>
</svg>