<?xml version="1.0" encoding="UTF-8"?>
<svg width="24px" height="24px" viewBox="0 0 24 24" version="1.1" xmlns="http://www.w3.org/2000/svg" xmlns:xlink="http://www.w3.org/1999/xlink">
    <!-- Generator: Sketch 53.2 (72643) - https://sketchapp.com -->
    <title>Close</title>
    <desc>Created with Sketch.</desc>
    <g id="Iconography/Close" stroke="none" stroke-width="1" fill="none" fill-rule="evenodd">
        <polygon id="fill" fill="#19191A" points="12 10.3636364 19.3636364 3 21 4.63636364 13.6363636 12 21 19.3636364 19.3636364 21 12 13.6363636 4.63636364 21 3 19.3636364 10.3636364 12 3 4.63636364 4.63636364 3"></polygon>
    </g>
</svg>