<?xml version="1.0" encoding="UTF-8"?>
<svg width="24px" height="24px" viewBox="0 0 24 24" version="1.1" xmlns="http://www.w3.org/2000/svg" xmlns:xlink="http://www.w3.org/1999/xlink">
    <!-- Generator: Sketch 53.2 (72643) - https://sketchapp.com -->
    <title>Iconography/hand</title>
    <desc>Created with Sketch.</desc>
    <g id="Iconography/hand" stroke="none" stroke-width="1" fill="none" fill-rule="evenodd">
        <path d="M17.8430198,6.45795489 L17.8430198,5.87636371 C17.8430198,4.15257891 16.1231417,2.94667818 14.536174,3.60136865 C13.7398374,1.42124052 10.7445352,1.50121531 10.0180689,3.63344711 C8.4736501,2.99952513 6.73091054,4.14923824 6.73091054,5.88401102 L6.73091054,10.9053195 C5.9136812,10.3549947 4.8193412,10.3461802 3.98310746,10.9644856 C2.9160888,11.7535675 2.68261192,13.2618993 3.45544409,14.3424244 L8.47654295,21.3630198 C8.65763537,21.6161906 8.94947349,21.7663596 9.26038401,21.7663551 L17.7480921,21.7663551 C18.1967558,21.7663555 18.5861407,21.4563691 18.6874639,21.0185284 L20.7918757,15.5593533 C20.9300546,14.9618355 20.999879,14.3505014 21,13.7371597 L21,8.75742135 C20.9999598,7.0846723 19.3703627,5.93548243 17.8430198,6.45795489 Z M19.7141294,13.7371999 C19.7140576,14.2526275 19.6554215,14.7663721 19.5393532,15.268514 L17.4926376,20.4783867 L9.42551737,20.4783867 L4.50012355,13.5922632 C4.1365489,13.0839182 4.24695924,12.3699409 4.74621645,12.0007367 C5.24129511,11.6346719 5.93517666,11.7430223 6.29855042,12.2510051 L7.43395277,13.838386 C7.61527804,14.091995 8.0166606,13.9633592 8.0166606,13.6508658 L8.0166606,5.88401102 C8.0166606,4.35422647 10.2436708,4.39773566 10.2436708,5.91282932 L10.2436708,11.4626074 C10.2436708,11.6404387 10.3875788,11.7845995 10.5650983,11.7845995 L10.8520928,11.7845995 C11.0296123,11.7845995 11.1735203,11.6404387 11.1735203,11.4626074 L11.1735203,4.42498424 C11.1735203,2.8945557 13.4005305,2.93870887 13.4005305,4.45380253 L13.4005305,11.4626074 C13.4005305,11.6404387 13.5444385,11.7845995 13.721958,11.7845995 L14.0089525,11.7845995 C14.186472,11.7845995 14.33038,11.6404387 14.33038,11.4626074 L14.33038,5.84754541 C14.33038,4.3182036 16.5573902,4.36127005 16.5573902,5.87636371 L16.5573902,11.4626074 C16.5573902,11.6404387 16.7012982,11.7845995 16.8788177,11.7845995 L17.1658123,11.7845995 C17.3433317,11.7845995 17.4872397,11.6404387 17.4872397,11.4626074 L17.4872397,8.78623964 C17.4872397,7.27464764 19.7142499,7.22268617 19.7142499,8.75742135 L19.7142499,13.7371999 L19.7141294,13.7371999 Z" id="fill" fill="#19191A"></path>
    </g>
</svg>