<?xml version="1.0" encoding="UTF-8"?>
<svg width="24px" height="24px" viewBox="0 0 24 24" version="1.1" xmlns="http://www.w3.org/2000/svg" xmlns:xlink="http://www.w3.org/1999/xlink">
    <!-- Generator: Sketch 53.2 (72643) - https://sketchapp.com -->
    <title>Iconography/mail</title>
    <desc>Created with Sketch.</desc>
    <g id="Iconography/mail" stroke="none" stroke-width="1" fill="none" fill-rule="evenodd">
        <path d="M21.609375,9.9609375 C21.6875004,9.88281211 21.772135,9.86979141 21.8632812,9.921875 C21.9544275,9.97395859 22,10.0520828 22,10.15625 L22,18.125 C22,18.6458359 21.8177102,19.0885398 21.453125,19.453125 C21.0885398,19.8177102 20.6458359,20 20.125,20 L3.875,20 C3.35416406,20 2.91146016,19.8177102 2.546875,19.453125 C2.18228984,19.0885398 2,18.6458359 2,18.125 L2,10.15625 C2,10.0520828 2.04557246,9.98046895 2.13671875,9.94140625 C2.22786504,9.90234355 2.31249961,9.90885391 2.390625,9.9609375 C3.2500043,10.6119824 5.25519258,12.0833219 8.40625,14.375 L8.796875,14.7265625 C9.42187813,15.1953148 9.91666484,15.5338531 10.28125,15.7421875 C10.9062531,16.0807309 11.4791641,16.25 12,16.25 C12.5208359,16.25 13.0937469,16.0677102 13.71875,15.703125 C14.109377,15.4947906 14.6041637,15.1562523 15.203125,14.6875 L15.59375,14.375 C18.666682,12.1614473 20.6718703,10.6901078 21.609375,9.9609375 Z M12,15 C11.6614566,15 11.2447941,14.8437516 10.75,14.53125 C10.4635402,14.3749992 10.0598984,14.0885438 9.5390625,13.671875 L9.1484375,13.3984375 C5.94529648,11.0546758 3.77083906,9.44010859 2.625,8.5546875 L2.3515625,8.359375 C2.11718633,8.17708242 2,7.92968906 2,7.6171875 L2,6.875 C2,6.35416406 2.18228984,5.91146016 2.546875,5.546875 C2.91146016,5.18228984 3.35416406,5 3.875,5 L20.125,5 C20.6458359,5 21.0885398,5.18228984 21.453125,5.546875 C21.8177102,5.91146016 22,6.35416406 22,6.875 L22,7.6171875 C22,7.92968906 21.8828137,8.17708242 21.6484375,8.359375 L21.453125,8.515625 C20.3333277,9.40104609 18.1328289,11.028634 14.8515625,13.3984375 L14.4609375,13.671875 C13.9401016,14.0885438 13.5364598,14.3749992 13.25,14.53125 C12.7552059,14.8437516 12.3385434,15 12,15 Z" id="fill" fill="#19191A"></path>
    </g>
</svg>