<?xml version="1.0" encoding="UTF-8"?>
<svg width="24px" height="24px" viewBox="0 0 24 24" version="1.1" xmlns="http://www.w3.org/2000/svg" xmlns:xlink="http://www.w3.org/1999/xlink">
    <!-- Generator: Sketch 53.2 (72643) - https://sketchapp.com -->
    <title>Iconography/pause</title>
    <desc>Created with Sketch.</desc>
    <g id="Iconography/pause" stroke="none" stroke-width="1" fill="none" fill-rule="evenodd">
        <path d="M6,19.5 L6,4.5 L10,4.5 L10,19.5 L6,19.5 Z M14,19.5 L14,4.5 L18,4.5 L18,19.5 L14,19.5 Z" id="fill" fill="#19191A"></path>
    </g>
</svg>