<?xml version="1.0" encoding="utf-8"?>
<!-- Generator: Adobe Illustrator 18.0.0, SVG Export Plug-In . SVG Version: 6.00 Build 0)  -->
<!DOCTYPE svg PUBLIC "-//W3C//DTD SVG 1.1//EN" "http://www.w3.org/Graphics/SVG/1.1/DTD/svg11.dtd">
<svg version="1.1" id="Layer_1" xmlns="http://www.w3.org/2000/svg" xmlns:xlink="http://www.w3.org/1999/xlink" x="0px" y="0px"
	 viewBox="0 0 48 48" enable-background="new 0 0 48 48" xml:space="preserve">
<path opacity="0.6" fill="#F0CA17" enable-background="new    " d="M24,0C10.7,0,0,10.7,0,24s10.7,24,24,24s24-10.7,24-24
	S37.3,0,24,0z M24,46C11.8,46,2,36.1,2,24S11.8,2,24,2s22,9.9,22,22S36.2,46,24,46z"/>
<circle fill="#F0CA17" cx="24" cy="24" r="20"/>
<polygon class="play-icon" style="opacity: 0;" fill="#FFFFFF" points="18.2,31.1 29.8,24 18.2,16.9 "/>
<g class="pause-icon">
	<rect x="25.5" y="18.4" fill="#FFFFFF" width="3" height="11.3"/>
	<rect x="19.5" y="18.4" fill="#FFFFFF" width="3" height="11.3"/>
</g>
</svg>
