<?xml version="1.0" encoding="utf-8"?>
<!-- Generator: Adobe Illustrator 24.2.1, SVG Export Plug-In . SVG Version: 6.00 Build 0)  -->
<svg version="1.1" id="Layer_1" xmlns="http://www.w3.org/2000/svg" xmlns:xlink="http://www.w3.org/1999/xlink" x="0px" y="0px"
	 viewBox="0 0 143.3 144" style="enable-background:new 0 0 143.3 144;" xml:space="preserve">
<style type="text/css">
	.st0{fill:#FFFFFF;}
	.st1{fill:#AFAFAE;}
</style>
<g>
	<path class="st0" d="M111.1,62L111.1,62c2.1-5.1,3.2-10.6,3.2-16.1c0-23.6-19.1-42.7-42.7-42.7C48,3.2,28.9,22.3,28.9,45.9
		c0,0,0,0,0,0c0,5.5,1.1,11,3.2,16.1l0,0c0.8,2.1,1.8,4.1,3,6l36,71.5l36.7-71C109.1,66.4,110.2,64.3,111.1,62z"/>
	<path class="st1" d="M71.1,142.2L34,68.5c-1.2-1.8-2.2-3.9-3-6.1c-2.2-5.3-3.3-10.8-3.3-16.6c0-11.7,4.6-22.8,12.9-31.1
		C48.8,6.5,59.9,1.9,71.6,1.9c0,0,0,0,0,0c24.2,0,43.9,19.7,43.9,43.9c0,5.7-1.2,11.3-3.3,16.6c-0.9,2.3-2,4.6-3.3,6.7L71.1,142.2z
		 M71.6,4.4c-11.1,0-21.5,4.3-29.3,12.1c-7.8,7.8-12.1,18.2-12.1,29.3c0,5.4,1.1,10.7,3.1,15.7c0.8,2,1.7,4,2.9,5.8l35,69.4
		l35.6-68.8c1.3-2,2.4-4.1,3.2-6.3l0,0c2-5,3.1-10.3,3.1-15.7C113,23,94.4,4.4,71.6,4.4C71.6,4.4,71.6,4.4,71.6,4.4z"/>
</g>
<g>
	<circle class="st1" cx="71.8" cy="45.7" r="11.2"/>
	<path class="st1" d="M71.8,58.2c-6.8,0-12.4-5.6-12.4-12.4S65,33.3,71.8,33.3c6.8,0,12.4,5.6,12.4,12.4S78.7,58.2,71.8,58.2z
		 M71.8,35.8c-5.5,0-9.9,4.5-9.9,9.9s4.5,9.9,9.9,9.9s9.9-4.5,9.9-9.9S77.3,35.8,71.8,35.8z"/>
</g>
</svg>
