<?xml version="1.0" encoding="UTF-8"?>
<svg width="24px" height="24px" viewBox="0 0 24 24" version="1.1" xmlns="http://www.w3.org/2000/svg" xmlns:xlink="http://www.w3.org/1999/xlink">
    <!-- Generator: Sketch 53.2 (72643) - https://sketchapp.com -->
    <title>twitter</title>
    <desc>Created with Sketch.</desc>
    <g id="Iconography/twitter" stroke="none" stroke-width="1" fill="none" fill-rule="evenodd">
        <path d="M19.1366739,8.65623984 C19.1601115,8.74998976 19.1718301,8.90233291 19.1718301,9.11326982 C19.1718301,10.8007651 18.7616748,12.4296667 17.9413647,13.999975 C17.0976171,15.6640327 15.9140264,16.9882479 14.3905934,17.9726202 C12.7265357,19.0741795 10.8163844,19.6249594 8.66014053,19.6249594 C6.59764608,19.6249594 4.71093293,19.0741795 3,17.9726202 C3.25781161,17.9960578 3.5507799,18.0077764 3.87890381,18.0077764 C5.58983673,18.0077764 7.12498836,17.4804341 8.48435977,16.4257495 C7.66404972,16.4257495 6.9433486,16.185516 6.3222564,15.7050484 C5.70116419,15.2245808 5.27343136,14.6210672 5.03905684,13.8945065 C5.27343136,13.9179442 5.49608682,13.9296627 5.70702373,13.9296627 C6.03514764,13.9296627 6.36327209,13.8945065 6.691396,13.8241942 C5.84764834,13.6366949 5.14452529,13.203102 4.58202686,12.5234166 C4.01952842,11.8437312 3.7382792,11.0702958 3.7382792,10.2031105 L3.7382792,10.1327982 C4.25390295,10.4374851 4.80468231,10.6015468 5.39061836,10.6249844 C4.89843223,10.2734229 4.49999601,9.82811141 4.19530918,9.28905059 C3.89062235,8.74998976 3.7382792,8.15819417 3.7382792,7.51366489 C3.7382792,6.86913561 3.91405996,6.25390295 4.26562148,5.66796689 C5.17968145,6.81640138 6.29881878,7.73046134 7.62303403,8.41014678 C8.94724928,9.08983221 10.3593544,9.46483135 11.8593504,9.53514365 C11.8124757,9.25389443 11.7890381,8.97264521 11.7890381,8.691396 C11.7890381,8.03514764 11.9531003,7.41991497 12.2812242,6.845698 C12.6093481,6.27148102 13.0546596,5.82031004 13.617158,5.49218613 C14.1796564,5.16406222 14.7890296,5 15.4452779,5 C15.9843388,5 16.4823844,5.10546846 16.9394144,5.31640537 C17.3964444,5.52734229 17.8007401,5.8085915 18.1523017,6.16015303 C18.9960493,5.9960908 19.7812032,5.70312305 20.5077639,5.28124922 C20.2265146,6.14843449 19.6874538,6.82811992 18.8905809,7.32030605 C19.5937039,7.22655614 20.296827,7.0273383 20.99995,6.72265146 C20.4843263,7.4726492 19.8632346,8.11717902 19.1366739,8.65623984 Z" id="fill" fill="#19191A"></path>
    </g>
</svg>