<svg id="chev-up" xmlns="http://www.w3.org/2000/svg" width="24" height="24" viewBox="0 0 24 24">
  <defs>
    <style>
      .cls-1 {
        fill: #231f20;
      }
    </style>
  </defs>
  <path id="icon" class="cls-1" d="M.19,5.914a.627.627,0,0,0,0,.9.66.66,0,0,0,.858.053l.061-.053L6.5,1.537l5.39,5.277a.66.66,0,0,0,.858.053l.061-.053a.627.627,0,0,0,.054-.84l-.054-.06L6.96.186A.66.66,0,0,0,6.1.133L6.04.186Z" transform="translate(6 8)"/>
</svg>
