<svg id="close" xmlns="http://www.w3.org/2000/svg" width="24" height="24" viewBox="0 0 24 24">
  <path id="icon" d="M12.727,0,14,1.273,8.272,7,14,12.727,12.727,14,7,8.272,1.273,14,0,12.727,5.727,7,0,1.273,1.273,0,7,5.727Z" transform="translate(5 5)" fill="#231f20"/>
</svg>
