<svg id="facebook" xmlns="http://www.w3.org/2000/svg" width="24" height="24" viewBox="0 0 24 24">
  <defs>
    <style>
      .cls-1 {
        fill: #231f20;
      }
    </style>
  </defs>
  <path id="icon" class="cls-1" d="M2.625,18V9.949H0V6.75H2.625V4.219A4.244,4.244,0,0,1,3.716,1.107,3.884,3.884,0,0,1,6.614,0,16.38,16.38,0,0,1,9,.141V2.988H7.364A1.554,1.554,0,0,0,6.1,3.41,1.845,1.845,0,0,0,5.83,4.535V6.75h2.9l-.409,3.2H5.83V18Z" transform="translate(8 3)"/>
</svg>
