<svg id="menu" xmlns="http://www.w3.org/2000/svg" width="24" height="24" viewBox="0 0 24 24">
  <path id="icon" d="M18,13H0V11.143H18V13Zm0-5.571H0V5.571H18V7.428Zm0-5.572H0V0H18V1.856Z" transform="translate(3 5)" fill="#231f20"/>
</svg>
